name,link,tooltip,fru
Intel® Core i3-2328M,https://ark.intel.com/products/70927/Intel-Core-i3-2328M-Processor-3M-Cache-2_20-GHz,Intel ARK,04W4445
Intel® Core i3-2370M,https://ark.intel.com/products/53442/Intel-Core-i3-2370M-Processor-3M-Cache-2_40-GHz,Intel ARK,04W4094
Intel® Core i5-2520M,https://ark.intel.com/products/52229/Intel-Core-i5-2520M-Processor-3M-Cache-up-to-3_20-GHz,Intel ARK,04W0492
Intel® Core i5-3210M,https://ark.intel.com/products/67355/Intel-Core-i5-3210M-Processor-3M-Cache-up-to-3_10-GHz-rPGA,Intel ARK,04W4140
Intel® Core i5-3230M,https://ark.intel.com/products/72056/Intel-Core-i5-3230M-Processor-3M-Cache-up-to-3_20-GHz-BGA,Intel ARK,04Y1313
Intel® Core i5-3320M,https://ark.intel.com/products/64896/Intel-Core-i5-3320M-Processor-3M-Cache-up-to-3_30-GHz,Intel ARK,04W4137
Intel® Core i5-3360M,https://ark.intel.com/products/64895/Intel-Core-i5-3360M-Processor-3M-Cache-up-to-3_50-GHz,Intel ARK,04W4138
Intel® Core i7-3520M,https://ark.intel.com/products/64893/Intel-Core-i7-3520M-Processor-4M-Cache-up-to-3_60-GHz,Intel ARK,04W4139
